id,images,price,title,description,specifications
1,"[""/assets/demo/waltermart/1.jpg""]",69,"""Oreo Vanilla Cream | 9pcs""","""UPC: 156854""","[[]]"
2,"[""/assets/demo/waltermart/2.jpg""]",47.5,"""Gardenia Classic White Loaf | 400g""",""" ""","[[]]"
3,"[""/assets/demo/waltermart/3.jpg""]",36.75,"""Century Tuna Flakes In Vegetable Oil | 180g""","""Dolphin Safe. Product of the Philippines.""","[[""Ingredeints"", ""Tuna Flakes, Water, Soybean Oil, Seasonings (Garlic, Ginger, Onion, Cinnamon, Chili), Sugar, Salt, Thickeners (Cornstarch, Xanthan Gum), Whey Powder and Artificial Flavors (Tuna, Chicken).""]]"
4,"[""/assets/demo/waltermart/4.jpg""]",50,"""SkyFlakes Cracker Single Packs | 10pcs""","""UPC: 30247""","[[]]"
5,"[""/assets/demo/waltermart/5.jpg""]",45,"""Yakult Cultured Milk | 5pcs""",""" ""","[[""Brand"", ""Yakult""]]"
6,"[""/assets/demo/waltermart/6.jpg""]",100,"""GF VEG BAG POTATO MARBLE/KG""",""" ""","[[]]"
7,"[""/assets/demo/waltermart/7.jpg""]",129.5,"""Eden Cheese | 440g""",""" ""","[[]]"
8,"[""/assets/demo/waltermart/8.jpg""]",106,"""Sunnyphil Banana Lacatan/kg""",""" ""","[[""Brand"", ""None""]]"
9,"[""/assets/demo/waltermart/9.jpg""]",463,"""Lysol Disinfectant Spray Crisp Linen | 510ml""","""Kills viruses (Rhinovirus Type 39 (the leading cause of the common cold); Rotavirus WA (the leading cause of infectious diarrhea in children); Respiratory Syncytial Virus (RSV - the leading cause of lower respiratory infection in children); Poliovirus Type 1; Adenovirus Type 2; Herpes Simplex Virus Types 1 & 2; Hepatitis A.), bacteria, mold & mildew. Kills 99.9% of germs in 30 seconds. (Sanitizes: Kills 99.9% of Staphylococcus aureus (staph) and Klebsiella pneumoniae (K.pneumoniae) on hard, non-porous surfaces in 30 seconds.) Eliminates odors. Lysol Brand II Disinfectant Spray kills viruses and bacteria on environmental surfaces in your home and in public places. Eliminates germs and odors on hard non-porous surfaces that you come into contact with every day. Use Lysol Brand II Disinfectant Spray: In empty garbage cans; In pet areas; In sick rooms; Under sinks; In diaper pails; In empty plastic hampers; On doorknobs; Around toilet areas. Fast/Easy/Effective: Use on finished surfaces in basements, closets, attics, laundry rooms, storage areas, vacation homes, boat and car interiors, shower stalls and recycling bins. Controls the growth of mold and mildew on mattresses, pillows, shower curtains and books. Disinfects: On environmental surfaces, Lysol Brand II Disinfectant Spray is tuberculocidal and kills the following bacteria, viruses and fungi: Bacteria & Fungi - Staphylococcus aureus (MRSA); Streptococcus pyogenes; Salmonella choleraesuis; Escherichia coli; Campylobacter jejuni; Athlete's Foot Fungus. Viruses - Rhinovirus Type 39 (the leading cause of the common cold); Rotavirus WA (the leading cause of infectious diarrhea in children); Respiratory Syncytial Virus (RSV - the leading cause of lower respiratory infection in children); Poliovirus Type 1; Adenovirus Type 2; Herpes Simplex Virus Types 1 & 2; Hepatitis A. Lysol Brand II Disinfectant Spray meets AOAC Germicidal Spray Product Test standards for hospital aerosol disinfectants. Eliminates Odors: Lysol Brand II Disinfectant Spray deodorizes by killing many germs that cause odors. It eliminates odors at their source. Ordinary nongermicidal sprays can't do this. To eliminate odors retained in fabrics, spray on draperies, curtains and upholstered furniture. Contains no CFCs or other ozone depleting substances. Federal regulations prohibit CFC propellants in aerosols. Made in USA.""","[[""Ingredients"", ""Active Ingredients: Alkyl (50% C14, 40% C12, 10% C16) Dimethyl Benzyl Ammonium Saccharinate (0.106%), Ethanol (79.646%). Inert Ingredients (20.248%). Total: (100.000%).""],[""Directions"", ""It is a violation of Federal law to use this product in a manner inconsistent with its labeling. Hold container upright 6 to 8 inches from surface. To Disinfect: For Precleaned Surfaces - Spray 2 to 3 seconds until covered with mist. Allow to stand 10 minutes to air dry. For Hard Non-Porous Food Contact Surfaces - Spray until covered with mist, let stand for 10 minutes, then rinse thoroughly. To Sanitize: Spray until covered with mist, let stand for 30 seconds then rinse thoroughly. To Control and Prevent Mold and Mildew and Their Odors: Spray precleaned surface until covered with mist. Repeat applications as necessary. To Deodorize: Spray on surface as needed.""]]"
10,"[""/assets/demo/waltermart/10.jpg""]",58,"""Nestle All Purpose Cream | 250ml""",""" ""","[]"
11,"[""/assets/demo/waltermart/11.jpg""]",47,"""Camelot Washed Sugar | 1kg""",""" ""","[[]]"
12,"[""/assets/demo/waltermart/12.jpg""]",145,"""Sunnyphil Large Honey Gold Pineapple""",""" ""","[[]]"
13,"[""/assets/demo/waltermart/13.jpg""]",260,"""Sunnyphil Crimson Grapes/Kg""",""" ""","[[]]"
14,"[""/assets/demo/waltermart/14.jpg""]",245,"""Sunnyphil Mango Sapadera/Kg""",""" ""","[[]]"
15,"[""/assets/demo/waltermart/15.jpg""]",235,"""Sunnyphil Seedless Orange 88/100/113""",""" ""","[[]]"
16,"[""/assets/demo/waltermart/16.jpg""]",220,"""Sunnyphil Gala Apple""",""" ""","[[]]"
17,"[""/assets/demo/waltermart/17.jpg""]",193,"""Global Fresh Baguio Cauliflower/Kg""",""" ""","[[]]"
18,"[""/assets/demo/waltermart/18.jpg""]",50,"""Palenke Fresh Tomatoes | 700-750g""",""" ""","[[]]"
19,"[""/assets/demo/waltermart/19.jpg""]",165.5,"""American Garden Steak Sauce 10oz""",""" ""","[[]]"
20,"[""/assets/demo/waltermart/20.jpg"", ""/assets/demo/waltermart/20-2.jpg""]",130,"""Hellman's Real Mayonnaise | 280ml""",""" ""","[[]]"
21,"[""/assets/demo/waltermart/21.jpg""]",140,"""Hellman's Salad Dressing Smoky Caesar | 210ml""",""" ""","[[]]"
22,"[""/assets/demo/waltermart/22.jpg""]",380,"""Ben & Jerry's Half Baked | 473ml""",""" ""","[[]]"
23,"[""/assets/demo/waltermart/23.jpg""]",380,"""Ben & Jerry's Triple Caramel Chunk | 473ml""",""" ""","[[]]"
24,"[""/assets/demo/waltermart/24.jpg""]",380,"""Ben & Jerry's Chocolate Chip Cookie Dough | 473ml""",""" ""","[[]]"
25,"[""/assets/demo/waltermart/25.jpg""]",380,"""Ben & Jerry's Chocolate Fudge Brownie | 473ml""",""" ""","[[]]"
26,"[""/assets/demo/waltermart/26.jpg""]",380,"""Ben & Jerrys Karamel Sutra | 473ml""",""" ""","[[]]"
27,"[""/assets/demo/waltermart/27.jpg""]",26,"""Tictac Orange Candy 14.5gr""",""" ""","[[]]"
28,"[""/assets/demo/waltermart/28.jpg""]",10.5,"""Chupa Chups Jelly Sour Bites | 24.2g""",""" ""","[[]]"
29,"[""/assets/demo/waltermart/29.jpg""]",26,"""Tictac Strawberry Candy 14.5gr""",""" ""","[[]]"
30,"[""/assets/demo/waltermart/30.jpg""]",26,"""Tictac Spearmint Candy 14.5gr""",""" ""","[[]]"
31,"[""/assets/demo/waltermart/31.jpg""]",55,"""Amos 4D Gummy Fruits | 96g""",""" ""","[[]]"
32,"[""/assets/demo/waltermart/32.jpg""]",8,"""Wilkins Pure Purified Water | 330ml""",""" ""","[[]]"
33,"[""/assets/demo/waltermart/33.jpg""]",26.5,"""Royal Tru Orange | 325ml""",""" ""","[[]]"
34,"[""/assets/demo/waltermart/34.jpg""]",59,"""Coca Cola Original Taste | 1.5L""",""" ""","[[]]"
35,"[""/assets/demo/waltermart/35.jpg""]",60,"""Royal Tru Orange | 1.5L""",""" ""","[[]]"
36,"[""/assets/demo/waltermart/36.jpg""]",60,"""Sprite | 1.5L""",""" ""","[[]]"
37,"[""/assets/demo/waltermart/37.jpg""]",250,"""Lifestyle All Natural Strawberry Yogurt Granola | 250g""",""" ""","[[]]"
38,"[""/assets/demo/waltermart/38.jpg""]",249,"""Superfood Grocer Coconola Tropical Medley | 200g""",""" ""","[[]]"
39,"[""/assets/demo/waltermart/39.jpg""]",395,"""Superfood Grocer Quinoa Incan Seeds | 454g""",""" ""","[[]]"
40,"[""/assets/demo/waltermart/40.jpg""]",250,"""Superfood Grocer Cacao Nibs | 227g""",""" ""","[[]]"
