id,images,price,title,description,specifications
1,"[""/assets/images/stock-photo-1.jpg""]",501,"""Wireless Headphones 4D Bass Double Speaker""","""Lorem ipsum dolor sit amet, consectetur adipiscing elit. Fusce rutrum tempus arcu, ac suscipit lorem. Nam gravida odio nec augue consequat iaculis.""","[[""Brand"", ""None""],[""Model"", ""S4""],[""Warranty Type"", ""No Warranty""]]"
2,"[""/assets/images/stock-photo-2.jpg""]",1000,"""Buy 1 Take 1 Watch""","""Lorem ipsum dolor sit amet, consectetur adipiscing elit. Fusce rutrum tempus arcu, ac suscipit lorem. Nam gravida odio nec augue consequat iaculis.""","[[""Brand"", ""None""],[""Model"", ""S4""],[""Warranty Type"", ""No Warranty""]]"
3,"[""/assets/images/stock-photo-3.jpg""]",2000,"""Original Vans Shoes Unisex Sneakers Classic Red""","""Lorem ipsum dolor sit amet, consectetur adipiscing elit. Fusce rutrum tempus arcu, ac suscipit lorem. Nam gravida odio nec augue consequat iaculis.""","[[""Brand"", ""None""],[""Model"", ""S4""],[""Warranty Type"", ""No Warranty""]]"
4,"[""/assets/images/stock-photo-4.jpg""]",100,"""100% Coco MCT Oil""","""Lorem ipsum dolor sit amet, consectetur adipiscing elit. Fusce rutrum tempus arcu, ac suscipit lorem. Nam gravida odio nec augue consequat iaculis.""","[[""Brand"", ""None""],[""Model"", ""S4""],[""Warranty Type"", ""No Warranty""]]"
5,"[""/assets/images/stock-photo-5.jpg""]",5000,"""Nike Running Shoes""","""Lorem ipsum dolor sit amet, consectetur adipiscing elit. Fusce rutrum tempus arcu, ac suscipit lorem. Nam gravida odio nec augue consequat iaculis.""","[[""Brand"", ""None""],[""Model"", ""S4""],[""Warranty Type"", ""No Warranty""]]"
6,"[""/assets/images/stock-photo-6.jpg""]",250.25,"""Sturdy White Wooden High Stool""","""Lorem ipsum dolor sit amet, consectetur adipiscing elit. Fusce rutrum tempus arcu, ac suscipit lorem. Nam gravida odio nec augue consequat iaculis.""","[[""Brand"", ""None""],[""Model"", ""S4""],[""Warranty Type"", ""No Warranty""]]"
7,"[""/assets/images/stock-photo-7.jpg""]",29999.99,"""Sony DSLR Camera""","""Lorem ipsum dolor sit amet, consectetur adipiscing elit. Fusce rutrum tempus arcu, ac suscipit lorem. Nam gravida odio nec augue consequat iaculis.""","[[""Brand"", ""None""],[""Model"", ""S4""],[""Warranty Type"", ""No Warranty""]]"
8,"[""/assets/images/stock-photo-8.jpg""]",99.99,"""1 Pair Balitello Socks - France""","""Lorem ipsum dolor sit amet, consectetur adipiscing elit. Fusce rutrum tempus arcu, ac suscipit lorem. Nam gravida odio nec augue consequat iaculis.""","[[""Brand"", ""None""],[""Model"", ""S4""],[""Warranty Type"", ""No Warranty""]]"
9,"[""/assets/images/stock-photo-9.jpg""]",999,"""Oculus Go Standalone VR""","""Lorem ipsum dolor sit amet, consectetur adipiscing elit. Fusce rutrum tempus arcu, ac suscipit lorem. Nam gravida odio nec augue consequat iaculis.""","[[""Brand"", ""None""],[""Model"", ""S4""],[""Warranty Type"", ""No Warranty""]]"
10,"[""/assets/images/stock-photo-10.jpg""]",55,"""Heinz Yellow Mustard 300ml""","""Lorem ipsum dolor sit amet, consectetur adipiscing elit. Fusce rutrum tempus arcu, ac suscipit lorem. Nam gravida odio nec augue consequat iaculis.""","[[""Brand"", ""None""],[""Model"", ""S4""],[""Warranty Type"", ""No Warranty""]]"
11,"[""/assets/images/stock-photo-11.jpg""]",199,"""Mario Badescu - 150ml""","""Lorem ipsum dolor sit amet, consectetur adipiscing elit. Fusce rutrum tempus arcu, ac suscipit lorem. Nam gravida odio nec augue consequat iaculis.""","[[""Brand"", ""None""],[""Model"", ""S4""],[""Warranty Type"", ""No Warranty""]]"
12,"[""/assets/images/stock-photo-12.jpg""]",99,"""1 Pair Balitello Socks - Black, White, Red pattern""","""Lorem ipsum dolor sit amet, consectetur adipiscing elit. Fusce rutrum tempus arcu, ac suscipit lorem. Nam gravida odio nec augue consequat iaculis.""","[[""Brand"", ""None""],[""Model"", ""S4""],[""Warranty Type"", ""No Warranty""]]"
13,"[""/assets/images/stock-photo-13.jpg""]",340,"""Airspun Loose Face Powder""","""Lorem ipsum dolor sit amet, consectetur adipiscing elit. Fusce rutrum tempus arcu, ac suscipit lorem. Nam gravida odio nec augue consequat iaculis.""","[[""Brand"", ""None""],[""Model"", ""S4""],[""Warranty Type"", ""No Warranty""]]"
14,"[""/assets/images/stock-photo-14.jpg""]",200,"""iPhone Case Yellow""","""Lorem ipsum dolor sit amet, consectetur adipiscing elit. Fusce rutrum tempus arcu, ac suscipit lorem. Nam gravida odio nec augue consequat iaculis.""","[[""Brand"", ""None""],[""Model"", ""S4""],[""Warranty Type"", ""No Warranty""]]"
15,"[""/assets/images/stock-photo-15.jpg""]",500,"""Amazon Alexa""","""Lorem ipsum dolor sit amet, consectetur adipiscing elit. Fusce rutrum tempus arcu, ac suscipit lorem. Nam gravida odio nec augue consequat iaculis.""","[[""Brand"", ""None""],[""Model"", ""S4""],[""Warranty Type"", ""No Warranty""]]"
16,"[""/assets/images/stock-photo-16.jpg""]",150,"""Sony Camera Tripod""","""Lorem ipsum dolor sit amet, consectetur adipiscing elit. Fusce rutrum tempus arcu, ac suscipit lorem. Nam gravida odio nec augue consequat iaculis.""","[[""Brand"", ""None""],[""Model"", ""S4""],[""Warranty Type"", ""No Warranty""]]"
17,"[""/assets/images/stock-photo-17.jpg""]",1050,"""Vinta Bag Black""","""Lorem ipsum dolor sit amet, consectetur adipiscing elit. Fusce rutrum tempus arcu, ac suscipit lorem. Nam gravida odio nec augue consequat iaculis.""","[[""Brand"", ""None""],[""Model"", ""S4""],[""Warranty Type"", ""No Warranty""]]"
18,"[""/assets/images/stock-photo-18.jpg""]",109,"""Gabrielle Chanel 250ml""","""Lorem ipsum dolor sit amet, consectetur adipiscing elit. Fusce rutrum tempus arcu, ac suscipit lorem. Nam gravida odio nec augue consequat iaculis.""","[[""Brand"", ""None""],[""Model"", ""S4""],[""Warranty Type"", ""No Warranty""]]"
19,"[""/assets/images/stock-photo-19.jpg""]",589,"""Turning Earth Ceramics""","""Lorem ipsum dolor sit amet, consectetur adipiscing elit. Fusce rutrum tempus arcu, ac suscipit lorem. Nam gravida odio nec augue consequat iaculis.""","[[""Brand"", ""None""],[""Model"", ""S4""],[""Warranty Type"", ""No Warranty""]]"
20,"[""/assets/images/stock-photo-20.jpg""]",45,"""3oz Cupcake Liner 100pcs""","""Lorem ipsum dolor sit amet, consectetur adipiscing elit. Fusce rutrum tempus arcu, ac suscipit lorem. Nam gravida odio nec augue consequat iaculis.""","[[""Brand"", ""None""],[""Model"", ""S4""],[""Warranty Type"", ""No Warranty""]]"
21,"[""/assets/images/stock-photo-21.jpg""]",25.5,"""1-pc Glass""","""Lorem ipsum dolor sit amet, consectetur adipiscing elit. Fusce rutrum tempus arcu, ac suscipit lorem. Nam gravida odio nec augue consequat iaculis.""","[[""Brand"", ""None""],[""Model"", ""S4""],[""Warranty Type"", ""No Warranty""]]"
22,"[""/assets/images/stock-photo-22.jpg""]",850,"""Timex Watch Leather""","""Lorem ipsum dolor sit amet, consectetur adipiscing elit. Fusce rutrum tempus arcu, ac suscipit lorem. Nam gravida odio nec augue consequat iaculis.""","[[""Brand"", ""None""],[""Model"", ""S4""],[""Warranty Type"", ""No Warranty""]]"
23,"[""/assets/images/stock-photo-23.jpg""]",250,"""Stockholms Branneri Dry Gin 300ml""","""Lorem ipsum dolor sit amet, consectetur adipiscing elit. Fusce rutrum tempus arcu, ac suscipit lorem. Nam gravida odio nec augue consequat iaculis.""","[[""Brand"", ""None""],[""Model"", ""S4""],[""Warranty Type"", ""No Warranty""]]"
24,"[""/assets/images/stock-photo-24.jpg""]",1250,"""Aedle Headphones""","""Lorem ipsum dolor sit amet, consectetur adipiscing elit. Fusce rutrum tempus arcu, ac suscipit lorem. Nam gravida odio nec augue consequat iaculis.""","[[""Brand"", ""None""],[""Model"", ""S4""],[""Warranty Type"", ""No Warranty""]]"
25,"[""/assets/images/stock-photo-25.jpg""]",7250,"""PS4 + Controller""","""Lorem ipsum dolor sit amet, consectetur adipiscing elit. Fusce rutrum tempus arcu, ac suscipit lorem. Nam gravida odio nec augue consequat iaculis.""","[[""Brand"", ""None""],[""Model"", ""S4""],[""Warranty Type"", ""No Warranty""]]"
26,"[""/assets/images/stock-photo-26.jpg""]",225.5,"""White Logitech Mouse Wireless""","""Lorem ipsum dolor sit amet, consectetur adipiscing elit. Fusce rutrum tempus arcu, ac suscipit lorem. Nam gravida odio nec augue consequat iaculis.""","[[""Brand"", ""None""],[""Model"", ""S4""],[""Warranty Type"", ""No Warranty""]]"
27,"[""/assets/images/stock-photo-27.jpg""]",120,"""3 Pastel Colored Spoons Set""","""Lorem ipsum dolor sit amet, consectetur adipiscing elit. Fusce rutrum tempus arcu, ac suscipit lorem. Nam gravida odio nec augue consequat iaculis.""","[[""Brand"", ""None""],[""Model"", ""S4""],[""Warranty Type"", ""No Warranty""]]"
28,"[""/assets/images/stock-photo-28.jpg""]",258.25,"""BattleCreek Coffee - House Blend""","""Lorem ipsum dolor sit amet, consectetur adipiscing elit. Fusce rutrum tempus arcu, ac suscipit lorem. Nam gravida odio nec augue consequat iaculis.""","[[""Brand"", ""None""],[""Model"", ""S4""],[""Warranty Type"", ""No Warranty""]]"
29,"[""/assets/images/stock-photo-29.jpg""]",75,"""Vitality Shot Energy Drink""","""Lorem ipsum dolor sit amet, consectetur adipiscing elit. Fusce rutrum tempus arcu, ac suscipit lorem. Nam gravida odio nec augue consequat iaculis.""","[[""Brand"", ""None""],[""Model"", ""S4""],[""Warranty Type"", ""No Warranty""]]"
30,"[""/assets/images/stock-photo-30.jpg""]",175,"""Miniature Volkswagen Beetle White""","""Lorem ipsum dolor sit amet, consectetur adipiscing elit. Fusce rutrum tempus arcu, ac suscipit lorem. Nam gravida odio nec augue consequat iaculis.""","[[""Brand"", ""None""],[""Model"", ""S4""],[""Warranty Type"", ""No Warranty""]]"
31,"[""/assets/images/stock-photo-31.jpg""]",499,"""Maui Moistue for Weak and Brittle Hair 385m""","""Lorem ipsum dolor sit amet, consectetur adipiscing elit. Fusce rutrum tempus arcu, ac suscipit lorem. Nam gravida odio nec augue consequat iaculis.""","[[""Brand"", ""None""],[""Model"", ""S4""],[""Warranty Type"", ""No Warranty""]]"
32,"[""/assets/images/stock-photo-32.jpg""]",399,"""Wooden Adjustable Long Swing Arm Desk Lamp""","""Lorem ipsum dolor sit amet, consectetur adipiscing elit. Fusce rutrum tempus arcu, ac suscipit lorem. Nam gravida odio nec augue consequat iaculis.""","[[""Brand"", ""None""],[""Model"", ""S4""],[""Warranty Type"", ""No Warranty""]]"
33,"[""/assets/images/stock-photo-33.jpg""]",50.25,"""Cactus plant (real)""","""Lorem ipsum dolor sit amet, consectetur adipiscing elit. Fusce rutrum tempus arcu, ac suscipit lorem. Nam gravida odio nec augue consequat iaculis.""","[[""Brand"", ""None""],[""Model"", ""S4""],[""Warranty Type"", ""No Warranty""]]"
34,"[""/assets/images/stock-photo-34.jpg""]",500,"""Chanel No. 5 Eau De Parfum for Women 100ml (Authentic Tester)""","""Lorem ipsum dolor sit amet, consectetur adipiscing elit. Fusce rutrum tempus arcu, ac suscipit lorem. Nam gravida odio nec augue consequat iaculis.""","[[""Brand"", ""None""],[""Model"", ""S4""],[""Warranty Type"", ""No Warranty""]]"
35,"[""/assets/images/stock-photo-35.jpg""]",1200,"""Clinique Pop Lip Colour + Primer""","""Lorem ipsum dolor sit amet, consectetur adipiscing elit. Fusce rutrum tempus arcu, ac suscipit lorem. Nam gravida odio nec augue consequat iaculis.""","[[""Brand"", ""None""],[""Model"", ""S4""],[""Warranty Type"", ""No Warranty""]]"
36,"[""/assets/images/stock-photo-36.jpg""]",7920,"""Rayban Sunglasses""","""Lorem ipsum dolor sit amet, consectetur adipiscing elit. Fusce rutrum tempus arcu, ac suscipit lorem. Nam gravida odio nec augue consequat iaculis.""","[[""Brand"", ""None""],[""Model"", ""S4""],[""Warranty Type"", ""No Warranty""]]"
37,"[""/assets/images/stock-photo-37.jpg""]",999,"""2nd hand bag""","""Lorem ipsum dolor sit amet, consectetur adipiscing elit. Fusce rutrum tempus arcu, ac suscipit lorem. Nam gravida odio nec augue consequat iaculis.""","[[""Brand"", ""None""],[""Model"", ""S4""],[""Warranty Type"", ""No Warranty""]]"
38,"[""/assets/images/stock-photo-38.jpg""]",300,"""1 Shoe, free fruits""","""Lorem ipsum dolor sit amet, consectetur adipiscing elit. Fusce rutrum tempus arcu, ac suscipit lorem. Nam gravida odio nec augue consequat iaculis.""","[[""Brand"", ""None""],[""Model"", ""S4""],[""Warranty Type"", ""No Warranty""]]"
39,"[""/assets/images/stock-photo-39.jpg""]",50000,"""Cool Bike""","""Lorem ipsum dolor sit amet, consectetur adipiscing elit. Fusce rutrum tempus arcu, ac suscipit lorem. Nam gravida odio nec augue consequat iaculis.""","[[""Brand"", ""None""],[""Model"", ""S4""],[""Warranty Type"", ""No Warranty""]]"
40,"[""/assets/images/stock-photo-40.jpg""]",5000,"""Unused 100% Working Vintage Polaroid Camer""","""Lorem ipsum dolor sit amet, consectetur adipiscing elit. Fusce rutrum tempus arcu, ac suscipit lorem. Nam gravida odio nec augue consequat iaculis.""","[[""Brand"", ""None""],[""Model"", ""S4""],[""Warranty Type"", ""No Warranty""]]"